module github.com/moemoe89/go-unit-test-sql

go 1.22.2

require (
	github.com/DATA-DOG/go-sqlmock v1.5.2
	github.com/go-sql-driver/mysql v1.8.1
	github.com/google/uuid v1.6.0
	github.com/lib/pq v1.10.9
	github.com/stretchr/testify v1.9.0
)

require (
	filippo.io/edwards25519 v1.1.0 // indirect
	github.com/davecgh/go-spew v1.1.1 // indirect
	github.com/pmezard/go-difflib v1.0.0 // indirect
	gopkg.in/yaml.v3 v3.0.1 // indirect
)
